2 1 1 1 
30 2 3 0 4 5 0 5 0 6 0 7 8 9 0 7 8 9 0 12 0 12 0 10 0 11 0 0 13 0 0 0 0 0 0 0 0 0 0 0 0 0 0 0 0 0 0 0 
13 1 4 7 9 11 15 19 21 23 25 27 28 30 
0 0 0 0 0 0 0 0 0 0 0 0 0 0 
0 2147483647 1 1 2147483647 2147483647 2147483647 2147483647 2147483647 2147483647 2147483647 2147483647 2147483647 2147483647 
0 2147483647 2147483647 2147483647 7 7 2147483647 2147483647 2147483647 2147483647 2147483647 2147483647 2147483647 2147483647 
0 2147483647 2147483647 2147483647 2147483647 2 2147483647 2147483647 2147483647 2147483647 2147483647 2147483647 2147483647 2147483647 
0 2147483647 2147483647 2147483647 2147483647 2147483647 4 2147483647 2147483647 2147483647 2147483647 2147483647 2147483647 2147483647 
0 2147483647 2147483647 2147483647 2147483647 2147483647 2147483647 6 6 6 2147483647 2147483647 2147483647 2147483647 
0 2147483647 2147483647 2147483647 2147483647 2147483647 2147483647 2 2 2 2147483647 2147483647 2147483647 2147483647 
0 2147483647 2147483647 2147483647 2147483647 2147483647 2147483647 2147483647 2147483647 2147483647 2147483647 2147483647 1 2147483647 
0 2147483647 2147483647 2147483647 2147483647 2147483647 2147483647 2147483647 2147483647 2147483647 2147483647 2147483647 12 2147483647 
0 2147483647 2147483647 2147483647 2147483647 2147483647 2147483647 2147483647 2147483647 2147483647 1 2147483647 2147483647 2147483647 
0 2147483647 2147483647 2147483647 2147483647 2147483647 2147483647 2147483647 2147483647 2147483647 2147483647 1 2147483647 2147483647 
0 2147483647 2147483647 2147483647 2147483647 2147483647 2147483647 2147483647 2147483647 2147483647 2147483647 2147483647 2147483647 2147483647 
0 2147483647 2147483647 2147483647 2147483647 2147483647 2147483647 2147483647 2147483647 2147483647 2147483647 2147483647 2147483647 1 
0 2147483647 2147483647 2147483647 2147483647 2147483647 2147483647 2147483647 2147483647 2147483647 2147483647 2147483647 2147483647 2147483647 
