2 1 1 0 
22 4 7 9 0 4 8 0 7 9 0 2 0 1 8 0 3 0 6 0 0 5 0 0 0 0 0 0 0 0 0 0 0 0 0 0 
9 1 5 8 11 13 16 18 20 21 
0 0 0 0 0 0 0 0 0 0 
0 2147483647 2147483647 2147483647 2 2147483647 2147483647 1 2147483647 2 
0 2147483647 2147483647 2147483647 1 2147483647 2147483647 2147483647 3 2147483647 
0 2147483647 2147483647 2147483647 2147483647 2147483647 2147483647 3 2147483647 1 
0 2147483647 2 2147483647 2147483647 2147483647 2147483647 2147483647 2147483647 2147483647 
0 3 2147483647 2147483647 2147483647 2147483647 2147483647 2147483647 2 2147483647 
0 2147483647 2147483647 3 2147483647 2147483647 2147483647 2147483647 2147483647 2147483647 
0 2147483647 2147483647 2147483647 2147483647 2147483647 1 2147483647 2147483647 2147483647 
0 2147483647 2147483647 2147483647 2147483647 2147483647 2147483647 2147483647 2147483647 2147483647 
0 2147483647 2147483647 2147483647 2147483647 2 2147483647 2147483647 2147483647 2147483647 
