5 4 0 0 0 0 
1 2147483647 1 2147483647 1 2147483647 
0 1 2147483647 2147483647 2147483647 2147483647 
0 2147483647 2147483647 2147483647 1 2147483647 
3 1 2147483647 1 2147483647 1 
0 2147483647 2147483647 2147483647 1 2147483647 
